{"count":367,"next":"https://pokeapi.co/api/v2/ability?offset=3&limit=3","previous":null,"results":[{"name":"stench","url":"https://pokeapi.co/api/v2/ability/1/"},{"name":"drizzle","url":"https://pokeapi.co/api/v2/ability/2/"},{"name":"speed-boost","url":"https://pokeapi.co/api/v2/ability/3/"}]}