{"count":937,"next":"https://pokeapi.co/api/v2/move?offset=3&limit=3","previous":null,"results":[{"name":"pound","url":"https://pokeapi.co/api/v2/move/1/"},{"name":"karate-chop","url":"https://pokeapi.co/api/v2/move/2/"},{"name":"double-slap","url":"https://pokeapi.co/api/v2/move/3/"}]}